{
  "project_info": {
    "project_number": "1063735368963",
    "firebase_url": "https://giga-spit-fire.firebaseio.com",
    "project_id": "giga-spit-fire",
    "storage_bucket": "giga-spit-fire.appspot.com"
  },
  "client": [
    {
      "client_info": {
        "mobilesdk_app_id": "1:1063735368963:android:4f395106de394a66",
        "android_client_info": {
          "package_name": "sg.com.giga.dev.mobaye714.SONICMobile"
        }
      },
      "oauth_client": [
        {
          "client_id": "1063735368963-6icj7hjiekn5moapvdls4qumsib9oe4l.apps.googleusercontent.com",
          "client_type": 3
		}
      ],
      "api_key": [
        {
          "current_key": "AIzaSyCHf34Zk8T5FRkwnipT49vQRIRgKLjp7hg"
        }
      ],
      "services": {
        "analytics_service": {
          "status": 1
        },
        "appinvite_service": {
          "status": 1,
          "other_platform_oauth_client": []
        },
        "ads_service": {
          "status": 2
        }
      }
    }
  ],
  "configuration_version": "1"
}